Dubno
Styr' River
Goryn' River
Klevan'
Lutsk
Senkevichevka
Rovno
Zdolbunov
Ikva River
Dubno
Berestechno
Kalin
I/36/14th Pz.
II/36/14th Pz.
40/-/14th Pz.
I/103/14th Pz.
II/103/14th Pz.
I/104/14th Pz.
II/104/14th Pz.
64/-/14th Pz.
13/-/14th Pz.
I/4/14th Pz.
II/4/14th Pz.
69/35th TankDiv
35/35th TankDiv
70/35th TankDiv
711/215th InfDiv
711/215th InfDiv
707/215th InfDiv
593/131st InfDiv
743/131st InfDiv
53/131st InfDiv
19/19th TankDiv
409/131st InfDiv
19/19th TankDiv
41/41st TankDiv
19/19th TankDiv
41/41st TankDiv
34/34th TankDiv
37/19th TankDiv
81/41st TankDiv
38/19th TankDiv
82/41st TankDiv
405/7th InfDiv
300/7th InfDiv
27/7th InfDiv
300/7th InfDiv
707/215th InfDiv
41/41st TankDiv
19/19th TankDiv
19/19th TankDiv
II/2/16th Pz.
I/64/16th Pz.
II/64/16th Pz.
175/-/75th Inf.
I/JG3
I/KG51
II/KG51
44 IAD
68/34th TankDiv
67/34th TankDiv
34/34th TankDiv
LSSAH
4/-/14th Pz
19/19th TankDiv
41/41st TankDiv
41/215th InfDiv
667/215th InfDiv
23/12th TankDiv
24/12th TankDiv
23/7th InfDiv
27/7th InfDiv
19/19th TankDiv
I/2/16th Pz.
I/79/16th Pz.
II/79/16th Pz.
16/-/16th Pz
I/16/16th Pz.
I/16/16th Pz.
16/-/16th Pz.
133/215st InfDiv
35/35th TankDiv
Dovhoshyi
I/525/298th Inf
II/525/298th Inf
III/525/298th Inf
I/172/75th Inf
II/172/75th Inf
III/172/75th Inf
670/-/
211/215st InfDiv
I/175/75th Inf.
II/JG3
I/528/299th Inf.
II/528/299th Inf.
III/528/299th Inf.
I/529/299th Inf.
II/529/299th Inf.
III/529/299 Inf.
I/299/299th Inf.
II/299/299th Inf.
299/-/299th Inf.
303/131st InfDiv
303/131st InfDiv
III/4/14th Pz.
284/215st InfDiv
