Prosna River
I/LSSAH
II/LSSAH
III/LSSAH
IV/LAH
15.Kradschutzen/LSSAH
Sepp Dietrich
Gola
10th Infantry Div.
Opatev
Wieuroszov
Boleslavecz
Wielpolska Brigade
Wolwyska Brigade
17th Infantry Div.
25th Infantry Div.
Aufk.-Zug/LSSAH
Pionierzug/LSSAH
II/46/- [XIII Corps]
6/-/- [XIII Korps]
I/21/17th Inf.
II/21/17th Inf.
III/21/17th Inf.
I/17/17th Inf.
I/28/10th Inf.
II/28/10th Inf.
III/28/10th Inf.
I/30/10th Inf.
II/30/10th Inf.
III/30/10th Inf.
I/31/10th Inf.
II/31/10th Inf.
III/31/10th Inf.
I/10-Lt/10th Inf.
II/10-Lt/10th Inf.
III/10-Lt/10th Inf.
10/-/10th Inf.
I/68/17th Inf.
II/68/17th Inf.
III/68/17th Inf.
I/29/25th Inf.
II/29/25th Inf.
III/29/25th Inf.
I/25/25th Inf.
I/7MR/Wielkopolska
II/7MR/Wielkopolska
71/-/Wielkopolska
I/55/17th Inf.
II/55/17th Inf.
III/55/17th Inf.
II/17/17th Inf.
