21 Panzer invades Palestine with a grand view to join the strugle for Russia via Iraq, Turkey and the caucasus.

Herr general the British and their American allies are trying to slow your advance into Persia by trying to defend Palestine. You will receive some reinforces in order to conquer Tel Aviv.
Our intelligence informed us of strong tank and artillery regiments on your way. Be careful, force a quick vistory!
                                                                                                                                                                                                                                                                                                                                                                                                   