A dance with the queen
IX/-/2Lib [GDL]
ATCo/-/-/2Lib [GDL]
ATCo/-/-/2Lib [GDL]
1/2/2Lib [GDL]
2/2/2Lib [GDL]
3/202/2MVSN [GDL]
MVSN/-/2Lib [GDL]
FrontierGuards/-/2Lib [GDL]
2/21/2Lib [GDL]
1/3/2Lib [GDL]
2/3/2Lib [GDL]
1/4/2Lib [GDL]
2/4/2Lib [GDL]
3/4/2Lib [GDL]
3/3/2Lib [GDL]
Lib/-/2Lib [GDL]
Misto/-/2Lib [GDL]
Camp Tumar West
Camp Tumar East
II/-/Maletti [XXI]
Camp Nibeiwa
ATCo/-/-/Maletti [XXI]
ATCo/-/-/Maletti [XXI]
MortCo/-/-/Maletti [XXI]
Aty/-/Maletti [XXI]
Aty/-/Maletti [XXI]
Aty/-/Maletti [XXI]
1Lib/-/Maletti [XXI]
5Lib/-/Maletti [XXI]
17Lib/-/Maletti [XXI]
19Lib/-/Maletti [XXI]
1Sah/-/Maletti [XXI]
LXII/-/62 [XXIII]
Coy/-/-/62 [XXIII]
1/44/62 [XXIII]
2/44/62 [XXIII]
3/44/62 [XXIII]
1/115/62 [XXIII]
2/115/62 [XXIII]
3/115/62 [XXIII]
1/116/62 [XXIII]
2/116/62 [XXIII]
3/116/62 [XXIII]
LXII/-/62 [XXIII]
LXIII/-/63 [XXI]
63/-/-/63 [XXI]
202/-/-/2MVSN(Att.)[XXI]
1/45/63 [XXI]
2/45/63 [XXI]
3/45/63 [XXI]
1/21/- [XXI]
3/21/- [XXI]
3/12/- [XXI]
1/-/61 (Attached) [XXI]
2/-/61 (Attached) [XXI]
1/157/63 [XXI]
2/157/63 [XXI]
3/157/63 [XXI]
1/158/63 [XXI]
2/158/63 [XXI]
3/158/63 [XXI]
63/-/-/63 [XXI]
LXIII/-/63 [XXI]
Camp Sofafi
Camp Rabia
A/1RHA/SpGp/7Arm WDF
C/4RHA/SpGp/7Arm WDF
1KRRC/SpGp/7Arm WDF
2RB/SpGp/7Arm WDF
A,C/3H/7/7Arm WDF
B/3H/4/7Arm WDF
C/3H/7/7Arm WDF
8H/7/7Arm WDF
B/8H/7/7Arm WDF
C/8H/7/7Arm WDF
1RTR/7/7Arm WDF
B/1RTR/7/7Arm WDF
C/1RTR/7/7Arm WDF
106RHA/-/7Arm WDF
DJ/3RHA/-/7Arm WDF
11H/-/7Arm WDF
7H/4/7Arm WDF
B/7H/4/7Arm WDF
C/7H/4/7Arm WDF
A,C/2RTR/4/7Arm WDF
B/2RTR/7/7Arm WDF
C/2RTR/4/7Arm WDF
6RTR/4/7Arm WDF
B/6RTR/4/7Arm WDF
C/6RTR/4/7Arm WDF
7RTR/-/- WDF
1NF/-/4Ind WDF
1Fld/-/4Ind WDF
25Fld/-/4Ind WDF
31Fld/-/4Ind WDF
1RF/5/4Ind WDF
3/1Punjab/5/4Ind WDF
4/6Rajputana/5/4Ind WDF
2QOCH/11/4Ind WDF
1/6Raj/11/4Ind WDF
4/7Raj/11/4Ind WDF
1Qns/16/4Ind WDF
2Leic/16/4Ind WDF
1ASH/16/4Ind WDF
1SH/16/4Ind WDF
FFMarines/16/4Ind WDF
33Sqn/202Gp WDAF
3SqnRAAF/202Gp WDAF
113Sqn/202Gp WDAF
13 Gruppo Libya A.C.East
62Sq/29 Gruppo Libya A.C.East
33/5/Libya A.C.East
64 - Move S to win
12RHA/-/- WDF
C/6RTR/4/7Arm WDF
1RHA/SpGp/7Arm WDF
1RHA/SpGp/7Arm WDF
B/1RHA/SpGp/7Arm WDF
E/1RHA/SpGp/7Arm WDF
3RHA/-/7Arm WDF
3RHA/-/7Arm WDF
MP/3RHA/-/7Arm WDF
4RHA/SpGp/7Arm WDF
F/4RHA/SpGp/7Arm WDF
Catanzaro Div. survives
Bir Enba
Sofafi - Height 236
X-roads at Qabe
sofafi - Height 226
Alam Al Rabia
Bty/-/-/-/62 [XXIII]
274Sqn/202Gp WDAF
LXII (L)/-/62 [XXIII]
ROUGH
Evacuate the camps
CIH/-/4Ind WDF
