Operation Sonnenblume
Gulf of Sirte
Via Balbia
Bir El Merduma
Marsa Brega
Marsa Brega Airfield
Salt Marsh
Bir El Merouma Airfield
El Agheila
Maaten Giofer Salt Marsh
Salt Marshes
1./3(mot)/-/5Le [DAK]
2./3(mot)/-/5Le [DAK] 
MG.Btl.2/200/5Le [DAK]
5,6.(Pi.)/MG.Btl.2/200/5Le
MG.Btl.8/200/5Le [DAK]
4.(Schw.)/MG.Btl.8/200/5Le
6.(Pi.)/MG.Btl.8/200/5Le
7.(PzJgr)/MG.Btl.8/200/5Le
1./I./75/5Le [DAK]
2./I./75/5Le [DAK]
3./I./75/5Le [DAK]
39/-/5Le [DAK]
605/-/5Le  [DAK]
1./606/-/5Le [DAK]
2./606/-/5Le [DAK]
3./606/-/5Le [DAK]
HQ/I./5Pz/5Le [DAK]
I./5Pz/5Le [DAK]
II./5Pz/5Le [DAK]
1./II./5Pz/5Le [DAK]
7,8./III./ZG26 X.
I./StG1 X.
I./StG2 X.
55Sqn/202Gp WDAF
1/THB/SpGp/2Arm [Cyrcom]
Scout/1/THB/SpGp/2Arm
1/1/FF(mot.)/SpGp/2Arm
C/1/NF/SpGp/2Arm [Cyrcom]
1RHA/SpGp/2Arm [Cyrcom]
104RHA/SpGp/2Arm [Cyrcom]
J/RHA/SpGp/2Arm [Cyrcom]
3H/3/2Arm [Cyrcom]
5RTR/3/2Arm [Cyrcom]
6RTR/3/2Arm [Cyrcom]
1KDG/-/2Arm [Cyrcom]
