Operation Brevity
Via Balbia
Bardia
Trigh Capuzzo
Sidi Azeiz
Ridotta Capuzzo
Sollum
Halfaya Pass
Sidi Omar 
7Arm Supply Column
Hafid Ridge
Bir Wair
Musaid
8FldRA/Coast/Gott [WDF]
2/RB/Coast/Gott [WDF]
31FldRA/22G/Gott [WDF]
A,C/4RTR/22G/Gott [WDF]
1/DLI/22G/Gott [WDF]
2SG/22G/Gott [WDF]
3Coldm Gds/22G/Gott [WDF]
Bty/1LAA/22G/Gott [WDF]
260/65RA/22G/Gott [WDF]
6/2/2RAA/22G/Gott [WDF]
1/KRRC/7A/Gott [WDF]
2RTR/7A/Gott [WDF]
PT 208
PT 206
Qalala
Sidi Suleiman
1./3(mot)/Herff/5Le [DAK]
2./3(mot)/Herff/5Le [DAK] 
605/Herff/5Le [DAK]
II./5Pz/5Le [DAK]
1./II./5Pz/5Le [DAK]
I./8Pz/15Pz [DAK]
1.(mg)/15Krad/-/15Pz[DAK]
SAND
Gott
Core Bersaglieri
274Sqn/204Gp WDAF
14Sqn/204Gp WDAF
Mare Nostrum
