Bataan 2
Olongapo : PORT
Culo River
Pampanga River
Moron
Mauban
Bagac
Mariveles
Mariveles : PORT
Cabcaben
Orion
Limay
Lamao
Mt Bataan : MOUNTAIN
Pilar
Abucay
Pilar River
Balantay River
Gogo River
Gogo River : STREAM
Bagac River
Batalan River
Orani River
Mt Limay : MOUNTAIN
Mt Silanganan : MOUNTAIN
Mt Natib : MOUNTAIN
Corregidor Island : ROUGH
Corregidor Island : HILL
Corregidor Island
Caballo Island : HILL
Mt Samat : MOUNTAIN
Longoskawayan Point : ROUGH
Quinauan Point : ROUGH
Anyasan Point : ROUGH
2/20/16
2/20/16
2/20/16
2/20/16
2/20/16
2/20/16
2/20/16
2/20/16
2/20/16
3/20/16
3/20/16
2/33/16
2/33/16
2/33/16
3/20/16
3/20/16
141/65
141/65
141/65
141/65
141/65
9/16
9/16
9/16
8th Field Art
8th field Art
122/65
122/65
122/65
122/65
ROADBLOCK!
51st Division
51st Division
21st Division
142/65
142/65
86th Field Artillery
57th Infantry
57th Infantry
141/65
51st Division
1st Division
1st Division
