Biak 2
Derkjnam
Caves : FORTIFICATION
Caves : FORTIFICATION
Caves : FORTIFICATION
Caves : FORTIFICATION
Bosnik Airfield
Sorido Airfield
Bosnik : PORT
Soriari
Ibdi
Borokoe Airfield
Borokoe Airfield
Borokoe
Parai
Owi Airfield
222/36
222/36
222/36
222/36
222/36
222/36
222/36
222/36
222/36
222/36
110S/71TRG
Mokmer Airfield
39S/35FG
Tank Co./222/36
653rd Kokutai
653rd Kokutai
222/36
222/36
222/36
222/36
222/36
222/36
