Morotai 2
Sopi
Pangeo
Koerago
Hapo
Tjioe
Berebere
Sakita
Posiposi
Wayabula
Boesoboeso
Sangowo
Pitoea
Pitoea
Sangowo
Doroeba : PORT
Doroeba
Sabatai-Toea
Doroeba
Dehegila
Gotalalamo
Daeo River
Pilowo River
Pangeo River
Sakita River
Sakita River : STREAM
Mira
PT-165
211/32
211/32
211/32
211/32
211 (Morita) CP
211/32
211/32
211/32
211/32
32 Div reinforcements
211/32
211/32
211/32
211/32
211/32
211/32
211/32
78 Squadron RAAF
42 Squadron RAAF
PT-166
211/32
211/32
211/32
211/32
211/32
211/32
