Entry of the Bear: Bandar-e Torkeman
1st Indep Mech
1st Indep Mech
1st Indep Mech
1st Indep Mech
1st Indep Mech
1st Indep Mech
1st Indep Mech
Royal Guard Armour
Royal Guard Art
Royal Guard AA
1st Royal Guard Inf
2nd Royal Guard Inf
3rd Royal Guard Inf
2nd Royal Afg Air
RPN PB
RPN PB
84/220
51/220
76/220
43/87
56/87
248/86
72/48
11/220
77/87
482/131
12/11
381/109
10/45
2/45
778/45
44/72
445/64
55/45
55/220
285/86
169/86
301/48
268/48
19/90
96/90
4/98
482/131
593/131
163/11
72/11
65/43
233 Air
233 Air
237 Air
237 Air
1st SAS
27th RAF
45th RAF
55th RAF
121st RAF
87th RAF
34th Indep Art
Kalinin
Komsomo
