Clash at Baghdad
1st Arm 
Royal Artillery
Royal Artillery
1/1st Inf
2/1st Inf
3/1st Inf
1st Recon
2nd Armour
1st Mountain Inf
2/3rd Mountain Inf
2/4th Inf Div
3/4th Inf Div
2nd Air
2nd Air
I/62e RAA
I/412e
II/4e RTT
I RMIT
II/4e RMTT
I/54e RAA
1/1st Kresch Uhlan
2/1st Kresch Uhlan
3/1st Kresch Uhlan
Recon Kresch Uhlan
Recon Kids of Lwow 
1/6th Kids of Lwow
2/6th Kids of Lwow
3/6th Kids of Lwow
1/3rd AT Reg
2/3rd AT Reg
3/3rd AT Reg
1st Artillery Reg
2/1 Art Reg 
3/1 Art Reg
1st Kreschowce Art
6th Kids of Lwow Art
12th Podole Uhlan
12th Podole Uhlan
1/3rd AA Reg
2/3rd AA Reg
3/3rd AA Reg
1/2nd Armour X AA
2/2nd Armour X AA
1/1st Carpathian Rif
2/1st Carpathian Rif
3/1st Carpathian Rif
4/2nd Carpathian Rif
5/2nd Carpathian Rif
6/2nd Carpathian Rif
26th RAF
34th RAF
54th RAF
77th RAF
87th RAF
USAAF
USAAF
USAAF
82nd AT
82nd AT
82nd Artillery
82nd Artillery
82nd Recon
504/82nd
505/82nd
325/82nd
376/82nd
456/82nd
319/82nd
1st Arm
