Battle for Fiji
4 SNLF
1st.Fiji Defence Bn
2nd.Fiji Defence Bn
3rd.Fiji Defence Bn
8th.Anti Tk.Bn/8th.
8th.Art.Bn/8th.Bgd.
15th.AA Bn/8th.Bgd.
29th.Inf.Bn/8th.Bgd.
30th.Inf.Bn/8th.Bgd.
34th.Inf.Bn/8th.Bgd
20th.Eng./8th.Bgd.
1st/148th.Inf/37th.
2nd/148th.Inf/37th.
3rd/148th.Inf/37th.
117th.Eng.Bn/37th.
135th.Art.Bn/37th.
1st.Bn/37th.AA
37th.Recon.
1st/145th.Inf/37th.
2nd/145th.Inf/37th.
3rd/145th.Inf/37th.
1st/129th.Inf/37th.
2nd/129th.Inf/37th.
3rd/129th.Inf/37th.
2nd.Bn/37th.AA
6th.Art.Bn/37th.
136th.Art.Bn/37th.
147th.Art.Bn/37th.
31st.AAA Bn.
Zuiho
Aoba
Shirayuki
Fubuki
Iguza
Yamagumo
Marakamo
Natsugomo
Akizuki
Helen
Buchanan
Duncan
South Dakota
VF1-6
VF2-6
B-25C-1
VT1-6
VB1-6
Enterprise
