Battle for Lingayen Gulf
86th. Field Arty.
1st/21st/21st.Div.PA
2nd/21st/21st.Div.PA
3rd/21st/21st.Div.PA
21st.Div.AAA(PA)
71st.Arty.Bn.(PA)
1st/71st/71st.Div.PA
2nd/71st/71st.Div.PA
3rd/71st/71st.Div.PA
1st/31st/31st.Div.PA
2nd/31st/31st.Div.PA
192nd.Tank Bn.
194th.Tank Bn.
Stingray
S-38
48th.Arty./48th.Div.
48th.Recon.Bn.
1st/1st.Formosa.reg.
1st/2nd.Formosa.reg
1st/47th/48th.Div.
48th.Engineer Bn.
24th.
50th.
33rd.
39th.
1st./9th./16th.Div.
22nd.Arty.Reg.
1st.Field Arty.
8th.Field ARTY
4th.Tank Bn.
7th.Tank Bn.
Akagi class
Akitsuki Class
Akitsuki Class
Akitsuki Class
Aringay
Santo Tomas
Rosario
San Fabian
San Jacinto
San Barbara
Dagupan
San Carlos
Lingayen
Rosales
Bayambuy
Aguilar
sual
2nd/47th/48th.Div.
3rd/47th/48th.Div.
2nd/9th/16th.Div
3rd/9th./16th.Div
2nd/1st.Formosa Reg.
3rd/1st.Formosa Reg.
2nd/2nd.Formosa Reg.
3rd/2nd.Formosa Reg.
1st.Bn/26th.Cav.(PS)
2nd.Bn/26th.Cav.(PS)
26th.Cav.Arty.Bn.(PS
9th.Field Arty.Bn.
16th.AAA Bn.
48th.AAA Bn.
14th.Army AAA
43rd.Engineer Bn.
1st.Bn/45th.Inf.(PS)
11th.Arty.Bn.(PA)
1st/11th/11th.Div.PA
2nd/11th/11th.Div.PA
3rd/11th/11th.Div.PA
1st/12th/11th.Div.PA
2nd/12th/11th.Div.PA
3rd/12th/11th.Div.PA
1st/13th/11th.Div.PA
2nd/13th/11th.Div.PA
3rd/13th/11th,Div.PA
31st.Arty.BN(PA)
3rd/31st/31st.Div.PA
1st/32nd/31st.Div.PA
2nd/32nd/31st.Div.PA
3rd/32nd/31st.Div.PA
1st/33rd/31st.Div.PA
2nd/33rd/31st.Div.PA
3rd/33rd/31st.Div.PA
1st/22nd/21st.Div.PA
21st.Arty.Bn.(PA)
2nd/22nd/21st.Div.PA
3rd/22nd/21st.Div.PA
1st/23rd/21st.Div.PA
2nd/23rd/21st.Div.PA
3rd/23rd/21st.Div.PA
1st/72nd/71st.Div.PA
2nd/72nd/71st.Div.PA
3rd/72nd/71st.Div.PA
1st/73rd/71st.Div.PA
2nd/73rd/71st.Div.PA
3rd/73rd/71st.Div.PA
22nd.AAA(PA)
23rd.AAA(PA)
71st.AAA(PA)
