Police action: Shanghai 1937
1/19th Route Army
2/19th Route Army
3/19th Route Army
4/19th Route Army
8/19th Route Army
9/19th Route Army
13/19th Route Army
16/19th Route Army
1/2/234 KMT
2/2/234 KMT
4/2/234 KMT
1/2 Air 
4/2 Air
2/2/19th Route Army
2/3/19th Route Army
3/2/19th Route Army
4/2/19th Route Army
1 Arm Div 19th Route
7/19th Route Army
3/2/19th Route Army
4/2/19th Route Army
2/3 Art 19th Route
3/3 Art Route
4/3 Art Route
1 Arm Div
1 Arm Div
1 Arm Div
1 Arm Div
1/3/3rd AT
Shanghai SNLF
Shanghai SNLF
Shanghai SNLF
Shanghai SNLF
2/3/3rd AT
1/3rd Art
2/3rd Art
5/3rd Art
3/4/3 Cav Reg
4/4/3 Cav Reg
1/4/3rd
2/4/3rd
3/4/3rd
1/5/3rd
2/5/3rd
3/5/3rd
2 Air Army
2 Air Army
2 Air Army
2 Air Army
2/3rd Assult 
3/3rd Assult
4/5/3rd
3/45th Russian
4/3rd Art
2 Air Army
