Mareth
Wadi Akarit
Gables
Mareth
El Hamma
2/1 Armored
3/1 Armored
1 Armored
6/1 Armored
7/1 Armored
8/1 Armored
10/1 Armored
13/1 Armored
2AT/1 Armored
AT/1 Infantry
AT/26 Infantry
2/23 FA
4/23 FA
1/23 FA
7/23 FA
10/23 FA
20/23 FA
Recon 23 FA
Recon 1 Infantry
General Patton
USAAF
USAAF
1/1 Infantry
5/1 Infantry
6/1 Infantry
7/1 Infantry
1/9 Infantry
4/9 Infantry
5/9 Infantry
10/1 Infantry
10/1 Infantry
11/1 Infantry
6/9 Infantry
10/9 Infantry
12/9 Infantry
USAAF
USAAF
USAAF
1/15 Panzer
2/15 Panzer
5/15 Panzer
4/21 Panzer
2/21 Panzer
DAK
2/DAK
4/DAK
4/15 Panzer
21 Panzer
1A/DAK
102
78
79
711
68
K/DAK
K/15 Panzer
12/64
17/64
20/64
22/64
15/90
16/90
20/90
25/90
25/64
13I/DAK
2005
2145
2146
2150
2152
2157
2160
L2
L2
L2
1 Messe
RA
RA
505
506
2/1 Messe
3/1 Messe
4/1 Messe
6/1 Messe
10/1 Messe
RA
RA
RA
