Novgorod
6G
6G
6G
2/3G
2/3G
3G
4/6G
5/6G
4/3G
3G
6G
3G
6G
76
231
125
126
127
121
123
132
134
M145
M146
6G
3G
121/3G
122/3G
130/3G
12/6G
13/6G
14/6G
121/821
122/821
123/821
130/821
12/34 Sibersk
13/34 Sibersk
17/34 Sibersk
1/1N 
210/423
211/423
213/423
256/423
14/12
15/12
41/GA
42/GA
RA
RA
RA
RA
RA
RA
RA
101 Airborne
101 Airborne
1/1 Rangers
AT/6G
AT/6G
10/6G
11/6G
RA
RA
RA
RA
RA
RA
RA
RA
RA
RA
RA
RA
RA
RA
RA
RA
RA
6G
6G
6G
6G
1AT/821
3AT/821
6G
159
160
RA
RA
E/821
E2/821
E5/821
143/6G
144/6G
CE/821
CE/821
CE/821
