Battle for Kishinev
Bic
Radeni
Ichel
Straseni
Cogalnic
Botna
Cojusna
Chisinau
Vasluieni
Ialoveni
Hancesti
Mereseni
Costesti
Sangera
Ciuculeni
Loganesti
/95 RD/[XXXV]
/5 CD/[II]
/9 CD/[II]
/[II]
172 aR/72 ID/[LIV]
/72 ID/[LIV]
105 R/72 ID/[LIV]
124 R/72 ID/[LIV]
266 R/72 ID/[LIV]
3R/1 B/[LIV]
4 R/1 BD/[LIV] 
2 BR/1 BD/[LIV]
1 BR/1 BD/[LIV]
3 R/1 BD/[LIV]
1 aR/1 BD/[LIV]
