LPG 10 (Gondar)
KAR/26/12 (EA)
ASH/22/12 (EA)
KAR/25/12 (EA) 
AA//12 (EA)
AT//12 KAR
Kenya AC/22/12 (EA)
51 Bty/RA (Gold Coast)
54 Bty/RA (Nyasaland)
53 Bty/RA (EA)
3 Sqn/RSAAF
41 ACS/RSAAF (Hartbeest)
Gondar
Gondar Airfield
Ambazzo
Ambazzo Airfield
Kulkaber
Kulkaber Airfield
413 Sqn/RAI
29 Sqn/RAI
26 Sqn/RAI
27 Sqn/ RAI
27 Sqn/RAI
Camforce (Walla Banda)
79 Colonial Bn (Ethiopia)
AT//12 (EA)
SA Lt Amr/22/12 (EA)
18 Mtn Bty/22/12 (EA)
22 Mtn Bty/22/12 (EA)
11 Sqn/RSAAF 
40 ACS/RSAAF (Hartbeest)
12 Sqn/RSAAF
Mixed Med Amr
Mixed Lt Amr
Mixed AC
