 
Campaign name in Game: GREATER EUROPE!
 
(An asterix '*' besides a goto-number indicates that an alternative goto is used.) 
 
Scn# Scn name            BV goto#  V Goto# TV goto#  L goto#      Start date  Mapname              Map-type
 
 0   madrid.scn                 1        1        1        1    23 DEC  1938  MADRID.MAP           (SSI)
 1   ciechan.scn                2        2        5        5     5 SEP  1939  CIECHANO.MAP         (SSI)
 2   suomuss.scn                3        3        3        5    25 DEC  1939  SOUMUSSA.MAP         (SSI)
 3   cm4Neth.scn                4        4       10     LOSE    10 APR  1940  ARNHEM2.MAP          (User)
 4   sedan.scn                  5        5       10     LOSE    13 MAY  1940  SEDAN.MAP            (SSI)
 5   rtd.scn                    9        6       10     LOSE    21 MAY  1940  DUNKIRK.MAP          (SSI)
 6   cm3Paris.scn               7        7       10     LOSE     7 JUN  1940  METZ.MAP             (SSI)
 7   cm4Narvk.scn              19       20       10     LOSE    15 JUL  1940  NARVIK.MAP           (User)
 8   cm3Invsn.scn              44       44       44     LOSE     1 MAY  1945  ENGLAND.MAP          (User)
 9   windsor.scn               13       13       14       21    13 AUG  1940  WINDSOR.MAP          (SSI)
10   ptt.scn                   11       11       14     LOSE     1 APR  1941  RATOBRUK.MAP         (SSI)
11   tobruk.scn                12       12       14     LOSE     8 APR  1941  PTOBRUK.MAP          (SSI)
12   malta.scn                 13       14       15     LOSE    24 MAY  1941  MALTA.MAP            (SSI)
13   cm4BrstL.scn              14       14       15     LOSE    22 JUN  1941  LITOVSK.MAP          (User)
14   kishinev.scn              15       15       15     LOSE     9 JUL  1941  KISHINEV.MAP         (SSI)
15   novgorod.scn              16       16       16     LOSE    15 AUG  1941  NOVGOROD.MAP         (SSI)
16   volokol.scn               17       17       21     LOSE    25 OCT  1941  VOLOKOL.MAP          (SSI)
17   klin.scn                 WIN*      27       21     LOSE    15 NOV  1941  KLIN.MAP             (SSI)
18   windsor1.scn             WIN      WIN      WIN     LOSE     1 APR  1943  WINDSOR.MAP          (SSI)
19   cm4Gibr.scn               20       20       11       14    15 OCT  1940  GIB2.MAP             (User)
20   cm4AfKor.scn              10       10       10       14    20 FEB  1941  AGEDABIA.MAP         (User)
21   winter.scn                22*      22*      22     LOSE    12 DEC  1942  CHIR.MAP             (SSI)
22   prok1.scn                 23*      23*      23     LOSE     5 JUL  1943  PROKHORV.MAP         (SSI)
23   antisal.scn               24       24       24     LOSE    11 SEP  1943  SALERNO.MAP          (SSI)
24   gcaen.scn                 25       25       25     LOSE     6 JUN  1944  CAEN.MAP             (SSI)
25   nordwind.scn              26       26       26     LOSE    30 DEC  1944  NORDWIND.MAP         (SSI)
26   konrad.scn               WIN      WIN      WIN     LOSE    14 JAN  1945  KONRAD.MAP           (SSI)
27   cm3Therm.scn              39       39       29       21     1 FEB  1942  GREECE.MAP           (SSI)
28   cm3SFrnt.scn              29       29       30       21     7 MAY  1942  KANEV.MAP            (SSI)
29   cm3Sevst.scn              30       30       21       22     3 JUN  1942  SEVASTOPOL.MAP       (User)
30   cm4Stlng.scn              31       31       21       22    29 JUL  1942  STALINGD.MAP         (User)
31   cm4Tunis.scn              32       32       37       23     1 DEC  1942  TUNIS.MAP            (User)
32   cm4Algrs.scn              33       33       37       23     7 FEB  1943  ALGIERS.MAP          (User)
33   cm3Bard.scn               34       34       37       23    10 APR  1943  BARDIA.MAP           (User)
34   cm3ElAlm.scn              35       35       37       23     7 MAY  1943  ALAMEIN.MAP          (User)
35   cm4Alex.scn               36       36       36       22    20 MAY  1943  ALEXANDRIA.MAP       (User)
36   cm3Kursk.scn              37       37       41       23     5 JUL  1943  PROKHORV.MAP         (SSI)
37   cm3Finld.scn              38       38       41       24    15 SEP  1943  VIIPURI.MAP          (SSI)
38   cm3LnEst.scn              40       40       41       24     1 DEC  1943  GOWOROW.MAP          (User)
39   cm4Kret2.scn              28       28       28       21    15 MAR  1942  KRETA2.MAP           (User)
40   cm3Moscw.scn              41       41       41       24    31 MAR  1944  MOSCOW.MAP           (User)
41   cm3GCaen.scn              42       42       44       25     6 JUN  1944  CAEN.MAP             (SSI)
42   cm3StLo.scn               43       43       43       25    25 JUL  1944  STLO.MAP             (SSI)
43   cm4Cherb.scn               8        8        8       25    22 AUG  1944  SALERNO.MAP          (SSI)
44   cm3Wind2.scn              45       45       47       26     1 JUN  1945  WINDSOR.MAP          (SSI)
45   cm3MdEng.scn              46       46       47     LOSE     1 JUL  1945  ARRACT.MAP           (SSI)
46   cm4Selow.scn              47       47       47     LOSE    15 SEP  1945  SEELOW.MAP           (SSI)
47   cm4Konrd.scn              48       48       48     LOSE    15 NOV  1945  KONRAD2.MAP          (User)
48   cm4Don.scn                49       49       49     LOSE    15 FEB  1946  DON.MAP              (User)
49   cm4Kazan.scn             WIN      WIN      WIN     LOSE    15 MAR  1946  KAZANSNW.MAP         (User)
 
End of campaignlist.
319,42,60,35,99,48,44,113,45,65,122,67,340,34