Windsor
Maidenhead
Slough
Egham
Sandhurst
Woking
London
Southall
Island Barn Reservoir
Thames River
Virginia Water
Bray
Windsor
Walton upon Thames
Weybridge
Chertsey
Southall
33/9
10/9
11/9
86/9
102/9
141/6
143/6
118/6
1/7
2/7
3/7
7
11/11
2/1
3/1
1/1
1RHA/1
22/2
1/2
12RHA/2
4/2
5/2
6/2
2
156/52
155/52
157/52
52
Yiewsley
Camberley
Staines
AIRFIELD
AIRFIELD
London
London
L
L
L
RAF
RAF
RAF
RAF
RAF
L1
L1
Leatherhead
RAF
RAF
RAF
RAF
RAF
1P
2C
2C
2
5/22/7
4/22/7
131/7
1/22/7
146/7
Uxbridge
RAF
RAF
RAF
RAF
RAF
RAF
RAF
RAF
RAF
RAF
Thames River
L1
L1
